// Jest Snapshot v1, https://goo.gl/fbAQLP

exports[`Pruebas en <TodoAdd /> Debe de mostrarse correctamente 1`] = `
<div
  className="container"
>
  <h4>
    Agregar TODO
  </h4>
  <hr />
  <form
    onSubmit={[Function]}
  >
    <div
      className="form-group row"
    >
      <div
        className="col-sm-1-12"
      >
        <input
          className="form-control"
          name="description"
          onChange={[Function]}
          placeholder="Tarea.."
          type="text"
          value=""
        />
      </div>
    </div>
    <div
      className="form-group row"
    >
      <div
        className="offset-sm-2 col-sm-10"
      >
        <button
          className="btn btn-outline-primary"
          type="submit"
        >
          Action
        </button>
      </div>
    </div>
  </form>
</div>
`;
